…
    ## `summarise()` has grouped output by 'Sex_sys', 'Species', 'source'. You can
    ## override using the `.groups` argument.
    ## `summarise()` has grouped output by 'Sex_sys', 'Species'. You can override
    ## using the `.groups` argument.

``` r
pollen_load_tab$stig_nplants = n_plants_stig$nplants
# names(pollen_load_tab)
pollen_load_tab
```

    ## # A tibble: 23 × 11
    ## # Groups:   Sex_sys, Species [23]
    ##    Sex_sys        Species  source mean_poll sd_poll n_poll_count se_poll CV_poll
    ##    <fct>          <fct>    <fct>      <dbl>   <dbl>        <int>   <dbl>   <dbl>
    ##  1 dioecious      Rumex a… CS2021      2.26    2.43          117   0.225   1.08 
    ##  2 dioecious      Thalict… CS2021      3.69    6.48          921   0.213   1.75 
    ##  3 hermaphroditic Bromus … JF2001     50.6    75.7           391   3.83    1.50 
    ##  4 hermaphroditic Chenopo… JF2004      3.09    3.73          150   0.304   1.21 
    ##  5 hermaphroditic Dichant… CS2021     14.6    16.3            64   2.04    1.12 
    ##  6 hermaphroditic Dichant… CS2021     38.0    61.8            20  13.8     1.62 
    ##  7 hermaphroditic Elymus … JF2001    107.    195.            354  10.4     1.82 
    ##  8 hermaphroditic Elymus … JF2001     84.3    69.9           266   4.29    0.830
    ##  9 hermaphroditic Festuca… JF2001     17.9    35.7           748   1.31    2.00 
    ## 10 hermaphroditic Phleum … CS2021     38.8    43.6            63   5.49    1.12 
    ## # ℹ 13 more rows
    ## # ℹ 3 more variables: max_poll <int>, min_poll <int>, stig_nplants <int>
…
