…
``` r
# View(stigd)

# Flower is nested within plant - each plant has (potentially) multiple flowers measured within it -- need to 
# create a unique plant ID for each plant within a species
stigd$Ind_ID=paste(stigd$Date, stigd$Site, stigd$Plant, sep = "-")
#How many unique individuals per species? 
print(n=22, stigd %>% group_by(Species) %>%
  distinct(Ind_ID) %>% 
  summarize(n=n()))
```

    ## # A tibble: 23 × 2
    ##    Species                         n
    ##    <fct>                       <int>
    ##  1 Amaranthus retroflexus         30
    ##  2 Ambrosia artemisiifolia        30
    ##  3 Bromus inermis                151
    ##  4 Carex communis                 81
    ##  5 Carex hirtifolia               89
    ##  6 Carex pedunculata              31
    ##  7 Carex plantaginea              38
    ##  8 Carex stipata                 142
    ##  9 Chenopodium album              95
    ## 10 Dichanthelium implicatum       39
    ## 11 Dichanthelium linearifolium    13
    ## 12 Elymus innovatus              163
    ## 13 Elymus repens                 100
    ## 14 Festuca campestris            319
    ## 15 Phleum pratense                18
    ## 16 Plantago lanceolata            42
    ## 17 Plantago major                 15
    ## 18 Rumex acetosella               50
    ## 19 Rumex crispus                 108
    ## 20 Schizacne purpurascens        154
    ## 21 Scirpus microcarpus           137
    ## 22 Setaria viridis                45
    ## # ℹ 1 more row
…
